paper/Cable_equation/data/data_15_10/V1_V6/data_V1.csv

#timebase=1136082944(ps)
,#voltbase=5000000(uV)
#size=4064
4.00000E-03,0.000
8.00000E-03,-0.200
1.20000E-02,-0.200
1.60000E-02,0.000
2.00000E-02,-0.200
2.40000E-02,0.000
2.80000E-02,0.000
3.20000E-02,0.000
3.60000E-02,0.200
4.00000E-02,0.000
4.40000E-02,0.000
4.80000E-02,0.200
5.20000E-02,-0.200
5.60000E-02,0.200
6.00000E-02,0.000
6.40000E-02,0.000
6.80000E-02,0.000
7.20000E-02,0.000
7.60000E-02,-0.200
8.00000E-02,0.000
8.40000E-02,0.000
8.80000E-02,0.200
9.20000E-02,0.000
9.60000E-02,-0.200
1.00000E-01,0.000
1.04000E-01,0.000
1.08000E-01,0.000
1.12000E-01,0.000
1.16000E-01,0.000
1.20000E-01,0.000
1.24000E-01,0.000
1.28000E-01,0.000
1.32000E-01,0.200
1.36000E-01,0.200
1.40000E-01,-0.200
1.44000E-01,0.000
1.48000E-01,0.000
1.52000E-01,0.000
1.56000E-01,-0.200
1.60000E-01,0.000
1.64000E-01,0.200
1.68000E-01,0.200
1.72000E-01,-0.200
1.76000E-01,0.000
1.80000E-01,0.000
1.84000E-01,0.000
1.88000E-01,-0.200
1.92000E-01,0.000
1.96000E-01,0.200
2.00000E-01,0.200
2.04000E-01,-0.200
2.08000E-01,0.000
2.12000E-01,0.000
2.16000E-01,0.000
2.20000E-01,0.000
2.24000E-01,0.000
2.28000E-01,0.200
2.32000E-01,0.200
2.36000E-01,-0.200
2.40000E-01,0.000
2.44000E-01,0.000
2.48000E-01,0.000
2.52000E-01,0.000
2.56000E-01,0.000
2.60000E-01,-0.200
2.64000E-01,0.000
2.68000E-01,0.000
2.72000E-01,0.000
2.76000E-01,-0.200
2.80000E-01,0.000
2.84000E-01,-0.200
2.88000E-01,0.000
2.92000E-01,-0.200
2.96000E-01,0.000
3.00000E-01,0.000
3.04000E-01,0.000
3.08000E-01,0.000
3.12000E-01,0.000
3.16000E-01,0.000
3.20000E-01,0.000
3.24000E-01,0.000
3.28000E-01,0.000
3.32000E-01,0.000
3.36000E-01,0.000
3.40000E-01,0.000
3.44000E-01,0.000
3.48000E-01,0.000
3.52000E-01,-0.200
3.56000E-01,0.200
3.60000E-01,0.200
3.64000E-01,0.200
3.68000E-01,-0.200
3.72000E-01,-0.200
3.76000E-01,0.200
3.80000E-01,0.000
3.84000E-01,0.000
3.88000E-01,0.000
3.92000E-01,0.000
3.96000E-01,0.000
4.00000E-01,0.000
4.04000E-01,0.000
4.08000E-01,0.000
4.12000E-01,0.000
4.16000E-01,0.000
4.20000E-01,0.000
4.24000E-01,0.000
4.28000E-01,0.000
4.32000E-01,0.000
4.36000E-01,0.000
4.40000E-01,0.200
4.44000E-01,0.200
4.48000E-01,-0.200
4.52000E-01,-0.200
4.56000E-01,0.000
4.60000E-01,0.000
4.64000E-01,0.000
4.68000E-01,0.000
4.72000E-01,0.000
4.76000E-01,0.000
4.80000E-01,0.000
4.84000E-01,-0.200
4.88000E-01,-0.200
4.92000E-01,0.000
4.96000E-01,0.000
5.00000E-01,0.000
5.04000E-01,0.000
5.08000E-01,0.000
5.12000E-01,0.000
5.16000E-01,0.000
5.20000E-01,0.000
5.24000E-01,0.200
5.28000E-01,0.200
5.32000E-01,0.200
5.36000E-01,0.400
5.40000E-01,-0.200
5.44000E-01,0.000
5.48000E-01,0.000
5.52000E-01,0.000
5.56000E-01,0.000
5.60000E-01,-0.200
5.64000E-01,0.000
5.68000E-01,-0.200
5.72000E-01,-0.200
5.76000E-01,0.200
5.80000E-01,-0.200
5.84000E-01,-0.200
5.88000E-01,0.000
5.92000E-01,-0.200
5.96000E-01,0.000
6.00000E-01,0.200
6.04000E-01,0.000
6.08000E-01,0.000
6.12000E-01,0.000
6.16000E-01,0.000
6.20000E-01,0.000
6.24000E-01,0.000
6.28000E-01,0.000
6.32000E-01,0.000
6.36000E-01,0.000
6.40000E-01,0.000
6.44000E-01,0.000
6.48000E-01,-0.200
6.52000E-01,0.000
6.56000E-01,0.000
6.60000E-01,0.000
6.64000E-01,0.000
6.68000E-01,0.000
6.72000E-01,0.000
6.76000E-01,-0.200
6.80000E-01,0.000
6.84000E-01,-0.200
6.88000E-01,0.000
6.92000E-01,0.000
6.96000E-01,0.000
7.00000E-01,0.000
7.04000E-01,-0.200
7.08000E-01,0.000
7.12000E-01,0.000
7.16000E-01,0.000
7.20000E-01,0.000
7.24000E-01,0.000
7.28000E-01,0.000
7.32000E-01,0.000
7.36000E-01,0.000
7.40000E-01,0.000
7.44000E-01,0.200
7.48000E-01,-0.200
7.52000E-01,0.000
7.56000E-01,0.000
7.60000E-01,0.000
7.64000E-01,0.200
7.68000E-01,0.200
7.72000E-01,0.000
7.76000E-01,-0.200
7.80000E-01,0.000
7.84000E-01,-0.200
7.88000E-01,0.000
7.92000E-01,-0.200
7.96000E-01,0.200
8.00000E-01,0.000
8.04000E-01,0.000
8.08000E-01,-0.200
8.12000E-01,0.000
8.16000E-01,0.000
8.20000E-01,0.000
8.24000E-01,0.000
8.28000E-01,0.000
8.32000E-01,0.000
8.36000E-01,0.200
8.40000E-01,0.200
8.44000E-01,-0.200
8.48000E-01,-0.200
8.52000E-01,0.000
8.56000E-01,-0.200
8.60000E-01,-0.200
8.64000E-01,0.000
8.68000E-01,0.200
8.72000E-01,-0.200
8.76000E-01,0.000
8.80000E-01,0.000
8.84000E-01,0.000
8.88000E-01,0.000
8.92000E-01,0.000
8.96000E-01,0.000
9.00000E-01,0.000
9.04000E-01,0.200
9.08000E-01,0.000
9.12000E-01,0.000
9.16000E-01,0.000
9.20000E-01,-0.200
9.24000E-01,0.000
9.28000E-01,0.000
9.32000E-01,0.200
9.36000E-01,0.000
9.40000E-01,-0.200
9.44000E-01,0.000
9.48000E-01,0.000
9.52000E-01,0.000
9.56000E-01,0.000
9.60000E-01,-0.200
9.64000E-01,-0.200
9.68000E-01,0.000
9.72000E-01,-0.200
9.76000E-01,0.000
9.80000E-01,0.000
9.84000E-01,0.000
9.88000E-01,0.000
9.92000E-01,-0.200
9.96000E-01,0.000
1.00000E+00,0.000
1.00400E+00,0.000
1.00800E+00,0.000
1.01200E+00,0.200
1.01600E+00,0.200
1.02000E+00,-0.200
1.02400E+00,-0.200
1.02800E+00,0.000
1.03200E+00,-0.200
1.03600E+00,-0.200
1.04000E+00,0.000
1.04400E+00,0.200
1.04800E+00,0.200
1.05200E+00,0.200
1.05600E+00,0.200
1.06000E+00,0.200
1.06400E+00,-0.200
1.06800E+00,0.000
1.07200E+00,0.000
1.07600E+00,0.000
1.08000E+00,0.000
1.08400E+00,0.000
1.08800E+00,0.000
1.09200E+00,0.000
1.09600E+00,-0.200
1.10000E+00,0.000
1.10400E+00,0.000
1.10800E+00,0.000
1.11200E+00,0.000
1.11600E+00,0.200
1.12000E+00,0.200
1.12400E+00,-0.200
1.12800E+00,-0.200
1.13200E+00,0.000
1.13600E+00,0.200
1.14000E+00,-0.200
1.14400E+00,-0.200
1.14800E+00,0.000
1.15200E+00,0.200
1.15600E+00,0.200
1.16000E+00,0.200
1.16400E+00,0.400
1.16800E+00,-0.200
1.17200E+00,0.000
1.17600E+00,0.000
1.18000E+00,0.000
1.18400E+00,0.200
1.18800E+00,0.200
1.19200E+00,0.200
1.19600E+00,0.200
1.20000E+00,-0.200
1.20400E+00,-0.200
1.20800E+00,0.000
1.21200E+00,-0.200
1.21600E+00,0.000
1.22000E+00,0.200
1.22400E+00,-0.200
1.22800E+00,-0.200
1.23200E+00,0.000
1.23600E+00,0.200
1.24000E+00,-0.200
1.24400E+00,-0.200
1.24800E+00,0.000
1.25200E+00,0.000
1.25600E+00,0.000
1.26000E+00,0.000
1.26400E+00,-0.200
1.26800E+00,-0.200
1.27200E+00,0.000
1.27600E+00,0.200
1.28000E+00,0.200
1.28400E+00,0.200
1.28800E+00,0.200
1.29200E+00,-0.200
1.29600E+00,0.000
1.30000E+00,0.000
1.30400E+00,0.000
1.30800E+00,-0.200
1.31200E+00,-0.200
1.31600E+00,0.000
1.32000E+00,-0.200
1.32400E+00,0.000
1.32800E+00,-0.200
1.33200E+00,0.000
1.33600E+00,-0.200
1.34000E+00,0.000
1.34400E+00,0.200
1.34800E+00,-0.200
1.35200E+00,0.000
1.35600E+00,0.000
1.36000E+00,0.000
1.36400E+00,0.200
1.36800E+00,-0.200
1.37200E+00,0.000
1.37600E+00,0.000
1.38000E+00,0.000
1.38400E+00,0.000
1.38800E+00,0.000
1.39200E+00,-0.200
1.39600E+00,0.000
1.40000E+00,-0.200
1.40400E+00,0.000
1.40800E+00,-0.200
1.41200E+00,0.000
1.41600E+00,0.000
1.42000E+00,0.000
1.42400E+00,0.000
1.42800E+00,0.000
1.43200E+00,0.000
1.43600E+00,0.000
1.44000E+00,0.000
1.44400E+00,0.000
1.44800E+00,0.000
1.45200E+00,0.000
1.45600E+00,0.000
1.46000E+00,0.000
1.46400E+00,0.000
1.46800E+00,-0.200
1.47200E+00,0.000
1.47600E+00,0.200
1.48000E+00,0.200
1.48400E+00,0.200
1.48800E+00,0.200
1.49200E+00,0.200
1.49600E+00,0.200
1.50000E+00,-0.200
1.50400E+00,0.000
1.50800E+00,0.000
1.51200E+00,0.000
1.51600E+00,0.000
1.52000E+00,0.000
1.52400E+00,0.000
1.52800E+00,0.000
1.53200E+00,0.000
1.53600E+00,0.200
1.54000E+00,0.000
1.54400E+00,0.000
1.54800E+00,0.000
1.55200E+00,-0.200
1.55600E+00,-0.200
1.56000E+00,0.000
1.56400E+00,-0.200
1.56800E+00,0.000
1.57200E+00,0.000
1.57600E+00,0.000
1.58000E+00,-0.200
1.58400E+00,0.000
1.58800E+00,0.200
1.59200E+00,-0.200
1.59600E+00,-0.200
1.60000E+00,0.000
1.60400E+00,-0.200
1.60800E+00,0.000
1.61200E+00,0.000
1.61600E+00,0.000
1.62000E+00,-0.200
1.62400E+00,0.000
1.62800E+00,-0.200
1.63200E+00,0.000
1.63600E+00,0.000
1.64000E+00,0.000
1.64400E+00,0.200
1.64800E+00,-0.200
1.65200E+00,-0.200
1.65600E+00,0.000
1.66000E+00,-0.200
1.66400E+00,0.000
1.66800E+00,-0.200
1.67200E+00,-0.200
1.67600E+00,0.000
1.68000E+00,-0.200
1.68400E+00,0.000
1.68800E+00,0.000
1.69200E+00,0.000
1.69600E+00,-0.200
1.70000E+00,0.000
1.70400E+00,-0.200
1.70800E+00,0.000
1.71200E+00,0.200
1.71600E+00,-0.200
1.72000E+00,0.000
1.72400E+00,0.000
1.72800E+00,0.000
1.73200E+00,0.000
1.73600E+00,-0.200
1.74000E+00,0.000
1.74400E+00,0.200
1.74800E+00,-0.200
1.75200E+00,-0.200
1.75600E+00,0.000
1.76000E+00,-0.200
1.76400E+00,0.000
1.76800E+00,0.000
1.77200E+00,0.000
1.77600E+00,0.000
1.78000E+00,0.000
1.78400E+00,0.000
1.78800E+00,0.000
1.79200E+00,0.000
1.79600E+00,0.000
1.80000E+00,-0.200
1.80400E+00,-0.200
1.80800E+00,0.000
1.81200E+00,-0.200
1.81600E+00,0.000
1.82000E+00,-0.200
1.82400E+00,0.000
1.82800E+00,0.200
1.83200E+00,0.200
1.83600E+00,0.200
1.84000E+00,-0.200
1.84400E+00,-0.200
1.84800E+00,0.000
1.85200E+00,0.200
1.85600E+00,0.200
1.86000E+00,-0.200
1.86400E+00,0.000
1.86800E+00,0.000
1.87200E+00,0.000
1.87600E+00,0.000
1.88000E+00,0.000
1.88400E+00,0.000
1.88800E+00,-0.200
1.89200E+00,-0.200
1.89600E+00,0.000
1.90000E+00,-0.200
1.90400E+00,0.000
1.90800E+00,0.000
1.91200E+00,0.000
1.91600E+00,0.200
1.92000E+00,-0.200
1.92400E+00,0.000
1.92800E+00,0.000
1.93200E+00,0.000
1.93600E+00,0.000
1.94000E+00,0.000
1.94400E+00,0.000
1.94800E+00,0.000
1.95200E+00,0.000
1.95600E+00,0.000
1.96000E+00,0.000
1.96400E+00,0.000
1.96800E+00,0.000
1.97200E+00,0.000
1.97600E+00,0.000
1.98000E+00,0.200
1.98400E+00,0.200
1.98800E+00,0.200
1.99200E+00,0.200
1.99600E+00,-0.200
2.00000E+00,0.000
2.00400E+00,0.000
2.00800E+00,0.000
2.01200E+00,0.000
2.01600E+00,0.000
2.02000E+00,0.000
2.02400E+00,0.000
2.02800E+00,0.200
2.03200E+00,0.200
2.03600E+00,-0.200
2.04000E+00,-0.200
2.04400E+00,0.000
2.04800E+00,-0.200
2.05200E+00,-0.200
2.05600E+00,0.000
2.06000E+00,-0.200
2.06400E+00,-0.200
2.06800E+00,0.000
2.07200E+00,-0.200
2.07600E+00,-0.200
2.08000E+00,0.000
2.08400E+00,0.000
2.08800E+00,0.000
2.09200E+00,0.000
2.09600E+00,0.000
2.10000E+00,0.000
2.10400E+00,0.000
2.10800E+00,0.000
2.11200E+00,0.000
2.11600E+00,0.200
2.12000E+00,0.000
2.12400E+00,0.000
2.12800E+00,0.000
2.13200E+00,-0.200
2.13600E+00,0.000
2.14000E+00,0.200
2.14400E+00,1.400
2.14800E+00,2.000
2.15200E+00,2.600
2.15600E+00,3.400
2.16000E+00,3.800
2.16400E+00,4.200
2.16800E+00,5.000
2.17200E+00,5.200
2.17600E+00,5.800
2.18000E+00,6.000
2.18400E+00,6.200
2.18800E+00,6.800
2.19200E+00,6.600
2.19600E+00,7.000
2.20000E+00,7.200
2.20400E+00,7.600
2.20800E+00,7.600
2.21200E+00,7.600
2.21600E+00,8.000
2.22000E+00,8.000
2.22400E+00,8.000
2.22800E+00,8.200
2.23200E+00,8.600
2.23600E+00,8.400
2.24000E+00,8.800
2.24400E+00,8.800
2.24800E+00,8.600
2.25200E+00,9.200
2.25600E+00,9.200
2.26000E+00,9.200
2.26400E+00,9.400
2.26800E+00,9.400
2.27200E+00,9.400
2.27600E+00,9.600
2.28000E+00,9.200
2.28400E+00,9.400
2.28800E+00,9.400
2.29200E+00,9.400
2.29600E+00,9.400
2.30000E+00,9.200
2.30400E+00,9.600
2.30800E+00,9.400
2.31200E+00,9.400
2.31600E+00,9.600
2.32000E+00,9.600
2.32400E+00,9.600
2.32800E+00,9.600
2.33200E+00,9.400
2.33600E+00,9.600
2.34000E+00,10.000
2.34400E+00,9.800
2.34800E+00,9.600
2.35200E+00,9.800
2.35600E+00,9.600
2.36000E+00,9.800
2.36400E+00,10.000
2.36800E+00,9.800
2.37200E+00,10.000
2.37600E+00,10.000
2.38000E+00,9.800
2.38400E+00,10.000
2.38800E+00,10.200
2.39200E+00,10.000
2.39600E+00,9.600
2.40000E+00,9.600
2.40400E+00,9.800
2.40800E+00,9.800
2.41200E+00,10.000
2.41600E+00,10.200
2.42000E+00,10.000
2.42400E+00,9.800
2.42800E+00,10.000
2.43200E+00,10.000
2.43600E+00,9.800
2.44000E+00,10.200
2.44400E+00,10.200
2.44800E+00,10.200
2.45200E+00,10.000
2.45600E+00,10.200
2.46000E+00,10.200
2.46400E+00,10.000
2.46800E+00,10.000
2.47200E+00,10.400
2.47600E+00,10.400
2.48000E+00,10.200
2.48400E+00,10.400
2.48800E+00,10.400
2.49200E+00,10.200
2.49600E+00,10.400
2.50000E+00,10.200
2.50400E+00,10.200
2.50800E+00,10.000
2.51200E+00,10.400
2.51600E+00,10.200
2.52000E+00,10.200
2.52400E+00,10.200
2.52800E+00,10.000
2.53200E+00,10.200
2.53600E+00,10.400
2.54000E+00,10.200
2.54400E+00,10.200
2.54800E+00,10.000
2.55200E+00,10.200
2.55600E+00,10.200
2.56000E+00,10.400
2.56400E+00,10.400
2.56800E+00,10.200
2.57200E+00,10.400
2.57600E+00,10.200
2.58000E+00,10.200
2.58400E+00,10.000
2.58800E+00,10.200
2.59200E+00,10.400
2.59600E+00,10.200
2.60000E+00,10.200
2.60400E+00,10.200
2.60800E+00,10.400
2.61200E+00,10.400
2.61600E+00,10.200
2.62000E+00,10.400
2.62400E+00,10.200
2.62800E+00,10.200
2.63200E+00,10.000
2.63600E+00,10.200
2.64000E+00,10.400
2.64400E+00,10.200
2.64800E+00,10.200
2.65200E+00,10.200
2.65600E+00,10.200
2.66000E+00,10.200
2.66400E+00,10.400
2.66800E+00,10.400
2.67200E+00,10.200
2.67600E+00,10.200
2.68000E+00,10.400
2.68400E+00,10.200
2.68800E+00,10.400
2.69200E+00,10.400
2.69600E+00,10.400
2.70000E+00,10.400
2.70400E+00,10.400
2.70800E+00,10.200
2.71200E+00,10.400
2.71600E+00,10.400
2.72000E+00,10.200
2.72400E+00,10.400
2.72800E+00,10.600
2.73200E+00,10.200
2.73600E+00,10.600
2.74000E+00,10.400
2.74400E+00,10.600
2.74800E+00,10.600
2.75200E+00,10.400
2.75600E+00,10.400
2.76000E+00,10.600
2.76400E+00,10.400
2.76800E+00,10.400
2.77200E+00,10.600
2.77600E+00,10.400
2.78000E+00,10.400
2.78400E+00,10.600
2.78800E+00,10.400
2.79200E+00,10.400
2.79600E+00,10.400
2.80000E+00,10.400
2.80400E+00,10.600
2.80800E+00,10.400
2.81200E+00,10.400
2.81600E+00,10.400
2.82000E+00,10.400
2.82400E+00,10.400
2.82800E+00,10.400
2.83200E+00,10.600
2.83600E+00,10.600
2.84000E+00,10.400
2.84400E+00,10.400
2.84800E+00,10.400
2.85200E+00,10.400
2.85600E+00,10.400
2.86000E+00,10.400
2.86400E+00,10.600
2.86800E+00,10.600
2.87200E+00,10.400
2.87600E+00,10.600
2.88000E+00,10.600
2.88400E+00,10.400
2.88800E+00,10.600
2.89200E+00,10.400
2.89600E+00,10.400
2.90000E+00,10.600
2.90400E+00,10.400
2.90800E+00,10.600
2.91200E+00,10.600
2.91600E+00,10.400
2.92000E+00,10.600
2.92400E+00,10.400
2.92800E+00,10.600
2.93200E+00,10.600
2.93600E+00,10.400
2.94000E+00,10.600
2.94400E+00,10.400
2.94800E+00,10.600
2.95200E+00,10.400
2.95600E+00,10.600
2.96000E+00,10.600
2.96400E+00,10.600
2.96800E+00,10.400
2.97200E+00,10.400
2.97600E+00,10.400
2.98000E+00,10.400
2.98400E+00,10.600
2.98800E+00,10.400
2.99200E+00,10.400
2.99600E+00,10.400
3.00000E+00,10.400
3.00400E+00,10.400
3.00800E+00,10.600
3.01200E+00,10.600
3.01600E+00,10.400
3.02000E+00,10.400
3.02400E+00,10.400
3.02800E+00,10.600
3.03200E+00,10.600
3.03600E+00,10.400
3.04000E+00,10.600
3.04400E+00,10.400
3.04800E+00,10.400
3.05200E+00,10.600
3.05600E+00,10.400
3.06000E+00,10.400
3.06400E+00,10.800
3.06800E+00,10.600
3.07200E+00,10.400
3.07600E+00,10.600
3.08000E+00,10.600
3.08400E+00,10.400
3.08800E+00,10.400
3.09200E+00,10.400
3.09600E+00,10.800
3.10000E+00,10.600
3.10400E+00,10.600
3.10800E+00,10.600
3.11200E+00,10.600
3.11600E+00,10.600
3.12000E+00,10.800
3.12400E+00,10.400
3.12800E+00,10.600
3.13200E+00,10.600
3.13600E+00,10.600
3.14000E+00,10.600
3.14400E+00,10.600
3.14800E+00,10.400
3.15200E+00,10.600
3.15600E+00,10.400
3.16000E+00,10.400
3.16400E+00,10.600
3.16800E+00,10.400
3.17200E+00,10.400
3.17600E+00,10.600
3.18000E+00,10.800
3.18400E+00,10.600
3.18800E+00,10.600
3.19200E+00,10.600
3.19600E+00,10.800
3.20000E+00,10.400
3.20400E+00,10.600
3.20800E+00,10.600
3.21200E+00,10.800
3.21600E+00,10.800
3.22000E+00,10.600
3.22400E+00,10.600
3.22800E+00,10.600
3.23200E+00,10.800
3.23600E+00,10.600
3.24000E+00,10.600
3.24400E+00,10.400
3.24800E+00,10.800
3.25200E+00,10.600
3.25600E+00,10.600
3.26000E+00,10.800
3.26400E+00,10.600
3.26800E+00,10.600
3.27200E+00,10.800
3.27600E+00,10.800
3.28000E+00,10.400
3.28400E+00,10.800
3.28800E+00,10.800
3.29200E+00,10.600
3.29600E+00,10.600
3.30000E+00,10.600
3.30400E+00,10.800
3.30800E+00,10.800
3.31200E+00,10.600
3.31600E+00,10.800
3.32000E+00,10.800
3.32400E+00,10.800
3.32800E+00,10.600
3.33200E+00,10.600
3.33600E+00,10.800
3.34000E+00,10.600
3.34400E+00,10.800
3.34800E+00,10.800
3.35200E+00,10.600
3.35600E+00,10.800
3.36000E+00,10.600
3.36400E+00,10.600
3.36800E+00,10.600
3.37200E+00,10.400
3.37600E+00,10.600
3.38000E+00,10.800
3.38400E+00,10.600
3.38800E+00,10.800
3.39200E+00,10.800
3.39600E+00,10.600
3.40000E+00,10.800
3.40400E+00,10.600
3.40800E+00,10.800
3.41200E+00,10.600
3.41600E+00,10.600
3.42000E+00,10.600
3.42400E+00,10.800
3.42800E+00,10.800
3.43200E+00,10.800
3.43600E+00,10.800
3.44000E+00,10.600
3.44400E+00,10.800
3.44800E+00,10.600
3.45200E+00,10.800
3.45600E+00,10.800
3.46000E+00,10.800
3.46400E+00,10.600
3.46800E+00,10.600
3.47200E+00,10.600
3.47600E+00,10.600
3.48000E+00,10.800
3.48400E+00,10.800
3.48800E+00,10.600
3.49200E+00,10.800
3.49600E+00,10.600
3.50000E+00,10.600
3.50400E+00,10.600
3.50800E+00,10.800
3.51200E+00,10.600
3.51600E+00,10.600
3.52000E+00,10.600
3.52400E+00,10.800
3.52800E+00,10.600
3.53200E+00,10.600
3.53600E+00,10.600
3.54000E+00,10.600
3.54400E+00,10.800
3.54800E+00,10.800
3.55200E+00,10.600
3.55600E+00,10.600
3.56000E+00,10.800
3.56400E+00,10.600
3.56800E+00,10.800
3.57200E+00,10.800
3.57600E+00,10.600
3.58000E+00,10.600
3.58400E+00,10.600
3.58800E+00,10.600
3.59200E+00,10.600
3.59600E+00,10.800
3.60000E+00,10.600
3.60400E+00,10.800
3.60800E+00,10.600
3.61200E+00,10.600
3.61600E+00,10.800
3.62000E+00,10.800
3.62400E+00,10.600
3.62800E+00,10.600
3.63200E+00,10.600
3.63600E+00,10.600
3.64000E+00,10.600
3.64400E+00,10.800
3.64800E+00,10.600
3.65200E+00,10.600
3.65600E+00,10.600
3.66000E+00,10.800
3.66400E+00,10.800
3.66800E+00,10.600
3.67200E+00,10.600
3.67600E+00,10.800
3.68000E+00,10.600
3.68400E+00,10.800
3.68800E+00,10.600
3.69200E+00,10.800
3.69600E+00,10.600
3.70000E+00,10.800
3.70400E+00,10.600
3.70800E+00,10.800
3.71200E+00,10.800
3.71600E+00,10.800
3.72000E+00,10.600
3.72400E+00,10.600
3.72800E+00,10.600
3.73200E+00,10.600
3.73600E+00,10.600
3.74000E+00,10.600
3.74400E+00,10.800
3.74800E+00,10.800
3.75200E+00,10.600
3.75600E+00,10.600
3.76000E+00,10.600
3.76400E+00,11.000
3.76800E+00,10.800
3.77200E+00,10.800
3.77600E+00,10.600
3.78000E+00,10.800
3.78400E+00,10.800
3.78800E+00,10.800
3.79200E+00,10.800
3.79600E+00,10.800
3.80000E+00,10.600
3.80400E+00,10.800
3.80800E+00,10.800
3.81200E+00,10.800
3.81600E+00,10.600
3.82000E+00,10.800
3.82400E+00,10.800
3.82800E+00,10.600
3.83200E+00,10.600
3.83600E+00,10.600
3.84000E+00,10.600
3.84400E+00,10.800
3.84800E+00,10.800
3.85200E+00,10.600
3.85600E+00,10.800
3.86000E+00,10.800
3.86400E+00,10.600
3.86800E+00,10.600
3.87200E+00,10.800
3.87600E+00,10.600
3.88000E+00,10.600
3.88400E+00,10.800
3.88800E+00,10.600
3.89200E+00,10.800
3.89600E+00,10.800
3.90000E+00,10.600
3.90400E+00,10.600
3.90800E+00,10.800
3.91200E+00,11.000
3.91600E+00,10.800
3.92000E+00,10.800
3.92400E+00,10.800
3.92800E+00,10.800
3.93200E+00,10.600
3.93600E+00,10.600
3.94000E+00,10.800
3.94400E+00,10.800
3.94800E+00,10.800
3.95200E+00,10.600
3.95600E+00,10.600
3.96000E+00,10.600
3.96400E+00,10.600
3.96800E+00,10.800
3.97200E+00,10.800
3.97600E+00,10.600
3.98000E+00,10.800
3.98400E+00,10.600
3.98800E+00,10.800
3.99200E+00,10.800
3.99600E+00,10.800
4.00000E+00,10.800
4.00400E+00,10.600
4.00800E+00,10.800
4.01200E+00,10.600
4.01600E+00,10.800
4.02000E+00,10.600
4.02400E+00,10.800
4.02800E+00,10.800
4.03200E+00,10.600
4.03600E+00,10.600
4.04000E+00,10.800
4.04400E+00,10.800
4.04800E+00,10.800
4.05200E+00,10.800
4.05600E+00,10.600
4.06000E+00,11.000
4.06400E+00,10.800
4.06800E+00,10.800
4.07200E+00,11.000
4.07600E+00,10.800
4.08000E+00,11.000
4.08400E+00,10.800
4.08800E+00,10.800
4.09200E+00,10.600
4.09600E+00,10.600
4.10000E+00,10.800
4.10400E+00,10.800
4.10800E+00,10.800
4.11200E+00,10.600
4.11600E+00,10.800
4.12000E+00,10.800
4.12400E+00,10.600
4.12800E+00,11.000
4.13200E+00,10.600
4.13600E+00,10.600
4.14000E+00,10.600
4.14400E+00,11.000
4.14800E+00,11.000
4.15200E+00,10.800
4.15600E+00,10.600
4.16000E+00,10.800
4.16400E+00,10.800
4.16800E+00,10.600
4.17200E+00,11.000
4.17600E+00,11.000
4.18000E+00,10.800
4.18400E+00,10.800
4.18800E+00,10.800
4.19200E+00,10.800
4.19600E+00,11.000
4.20000E+00,10.800
4.20400E+00,10.800
4.20800E+00,10.800
4.21200E+00,10.800
4.21600E+00,10.600
4.22000E+00,10.800
4.22400E+00,10.800
4.22800E+00,10.600
4.23200E+00,11.000
4.23600E+00,10.600
4.24000E+00,10.800
4.24400E+00,10.800
4.24800E+00,10.800
4.25200E+00,10.600
4.25600E+00,10.800
4.26000E+00,10.800
4.26400E+00,11.000
4.26800E+00,10.600
4.27200E+00,11.000
4.27600E+00,10.600
4.28000E+00,10.600
4.28400E+00,10.600
4.28800E+00,10.600
4.29200E+00,11.000
4.29600E+00,11.000
