examples/Akshay/data/data_10_08/V1_V4/data_V4.csv

#timebase=1136082944(ps)
,#voltbase=5000000(uV)
#size=4064
4.00000E-03,-0.008
8.00000E-03,-0.008
1.20000E-02,0.000
1.60000E-02,0.008
2.00000E-02,0.008
2.40000E-02,0.008
2.80000E-02,-0.008
3.20000E-02,-0.008
3.60000E-02,0.000
4.00000E-02,-0.008
4.40000E-02,0.000
4.80000E-02,0.000
5.20000E-02,0.000
5.60000E-02,0.000
6.00000E-02,0.000
6.40000E-02,-0.008
6.80000E-02,-0.008
7.20000E-02,0.000
7.60000E-02,-0.008
8.00000E-02,-0.008
8.40000E-02,0.000
8.80000E-02,-0.008
9.20000E-02,0.000
9.60000E-02,0.008
1.00000E-01,-0.008
1.04000E-01,-0.008
1.08000E-01,0.000
1.12000E-01,0.008
1.16000E-01,-0.008
1.20000E-01,0.000
1.24000E-01,0.000
1.28000E-01,0.000
1.32000E-01,0.000
1.36000E-01,0.008
1.40000E-01,-0.008
1.44000E-01,-0.008
1.48000E-01,0.000
1.52000E-01,0.008
1.56000E-01,0.008
1.60000E-01,0.008
1.64000E-01,-0.008
1.68000E-01,0.008
1.72000E-01,0.000
1.76000E-01,0.000
1.80000E-01,0.000
1.84000E-01,0.000
1.88000E-01,0.000
1.92000E-01,0.000
1.96000E-01,0.008
2.00000E-01,-0.008
2.04000E-01,-0.008
2.08000E-01,0.008
2.12000E-01,0.008
2.16000E-01,-0.008
2.20000E-01,-0.008
2.24000E-01,0.000
2.28000E-01,0.000
2.32000E-01,-0.008
2.36000E-01,0.000
2.40000E-01,-0.008
2.44000E-01,0.000
2.48000E-01,0.000
2.52000E-01,0.000
2.56000E-01,0.008
2.60000E-01,0.008
2.64000E-01,0.008
2.68000E-01,0.008
2.72000E-01,-0.008
2.76000E-01,0.000
2.80000E-01,0.000
2.84000E-01,0.000
2.88000E-01,0.000
2.92000E-01,0.000
2.96000E-01,0.000
3.00000E-01,0.000
3.04000E-01,0.000
3.08000E-01,0.008
3.12000E-01,-0.008
3.16000E-01,-0.008
3.20000E-01,0.000
3.24000E-01,-0.008
3.28000E-01,-0.008
3.32000E-01,0.000
3.36000E-01,0.000
3.40000E-01,0.000
3.44000E-01,0.000
3.48000E-01,-0.008
3.52000E-01,0.000
3.56000E-01,-0.008
3.60000E-01,-0.008
3.64000E-01,0.000
3.68000E-01,0.000
3.72000E-01,0.000
3.76000E-01,0.008
3.80000E-01,0.000
3.84000E-01,0.000
3.88000E-01,0.000
3.92000E-01,-0.008
3.96000E-01,0.000
4.00000E-01,-0.008
4.04000E-01,0.000
4.08000E-01,0.000
4.12000E-01,0.000
4.16000E-01,0.008
4.20000E-01,0.000
4.24000E-01,-0.008
4.28000E-01,0.000
4.32000E-01,0.008
4.36000E-01,-0.008
4.40000E-01,0.000
4.44000E-01,0.000
4.48000E-01,0.000
4.52000E-01,0.000
4.56000E-01,0.000
4.60000E-01,-0.008
4.64000E-01,0.000
4.68000E-01,-0.008
4.72000E-01,0.000
4.76000E-01,0.000
4.80000E-01,0.000
4.84000E-01,0.000
4.88000E-01,0.000
4.92000E-01,0.000
4.96000E-01,0.000
5.00000E-01,0.000
5.04000E-01,0.000
5.08000E-01,0.000
5.12000E-01,0.000
5.16000E-01,0.000
5.20000E-01,0.008
5.24000E-01,-0.008
5.28000E-01,-0.008
5.32000E-01,0.000
5.36000E-01,-0.008
5.40000E-01,0.000
5.44000E-01,0.000
5.48000E-01,0.000
5.52000E-01,0.000
5.56000E-01,0.000
5.60000E-01,0.000
5.64000E-01,0.000
5.68000E-01,0.000
5.72000E-01,0.000
5.76000E-01,0.000
5.80000E-01,-0.008
5.84000E-01,-0.008
5.88000E-01,0.000
5.92000E-01,0.000
5.96000E-01,-0.008
6.00000E-01,0.000
6.04000E-01,-0.008
6.08000E-01,0.000
6.12000E-01,0.000
6.16000E-01,0.000
6.20000E-01,0.000
6.24000E-01,0.000
6.28000E-01,-0.008
6.32000E-01,0.000
6.36000E-01,0.000
6.40000E-01,0.000
6.44000E-01,0.000
6.48000E-01,0.000
6.52000E-01,0.000
6.56000E-01,0.000
6.60000E-01,0.008
6.64000E-01,-0.008
6.68000E-01,0.000
6.72000E-01,0.000
6.76000E-01,0.000
6.80000E-01,0.000
6.84000E-01,-0.008
6.88000E-01,0.000
6.92000E-01,0.000
6.96000E-01,0.000
7.00000E-01,0.008
7.04000E-01,-0.008
7.08000E-01,0.000
7.12000E-01,0.000
7.16000E-01,0.000
7.20000E-01,0.000
7.24000E-01,0.000
7.28000E-01,0.000
7.32000E-01,0.000
7.36000E-01,0.000
7.40000E-01,0.000
7.44000E-01,0.000
7.48000E-01,0.000
7.52000E-01,0.000
7.56000E-01,0.000
7.60000E-01,0.000
7.64000E-01,0.000
7.68000E-01,-0.008
7.72000E-01,-0.008
7.76000E-01,0.000
7.80000E-01,-0.008
7.84000E-01,0.000
7.88000E-01,0.008
7.92000E-01,0.008
7.96000E-01,0.008
8.00000E-01,0.016
8.04000E-01,0.008
8.08000E-01,-0.008
8.12000E-01,0.000
8.16000E-01,0.000
8.20000E-01,0.008
8.24000E-01,0.008
8.28000E-01,0.008
8.32000E-01,-0.008
8.36000E-01,0.000
8.40000E-01,0.000
8.44000E-01,0.000
8.48000E-01,0.000
8.52000E-01,0.008
8.56000E-01,0.000
8.60000E-01,-0.008
8.64000E-01,0.000
8.68000E-01,-0.008
8.72000E-01,-0.008
8.76000E-01,0.000
8.80000E-01,0.008
8.84000E-01,0.008
8.88000E-01,0.008
8.92000E-01,-0.008
8.96000E-01,0.000
9.00000E-01,0.000
9.04000E-01,0.000
9.08000E-01,0.000
9.12000E-01,-0.008
9.16000E-01,0.000
9.20000E-01,0.000
9.24000E-01,0.000
9.28000E-01,0.000
9.32000E-01,-0.008
9.36000E-01,0.000
9.40000E-01,0.008
9.44000E-01,-0.008
9.48000E-01,0.000
9.52000E-01,0.000
9.56000E-01,0.000
9.60000E-01,-0.008
9.64000E-01,0.000
9.68000E-01,0.008
9.72000E-01,-0.008
9.76000E-01,-0.008
9.80000E-01,0.000
9.84000E-01,0.000
9.88000E-01,0.000
9.92000E-01,0.000
9.96000E-01,-0.008
1.00000E+00,0.000
1.00400E+00,0.008
1.00800E+00,-0.008
1.01200E+00,0.000
1.01600E+00,0.000
1.02000E+00,0.000
1.02400E+00,-0.008
1.02800E+00,0.000
1.03200E+00,0.008
1.03600E+00,0.000
1.04000E+00,-0.008
1.04400E+00,0.000
1.04800E+00,0.000
1.05200E+00,0.000
1.05600E+00,0.000
1.06000E+00,-0.008
1.06400E+00,0.000
1.06800E+00,0.000
1.07200E+00,-0.008
1.07600E+00,0.000
1.08000E+00,0.000
1.08400E+00,0.000
1.08800E+00,0.008
1.09200E+00,0.008
1.09600E+00,0.008
1.10000E+00,-0.008
1.10400E+00,-0.008
1.10800E+00,0.000
1.11200E+00,0.008
1.11600E+00,-0.008
1.12000E+00,0.000
1.12400E+00,0.000
1.12800E+00,0.000
1.13200E+00,0.000
1.13600E+00,-0.008
1.14000E+00,0.000
1.14400E+00,0.008
1.14800E+00,-0.008
1.15200E+00,-0.008
1.15600E+00,0.000
1.16000E+00,0.008
1.16400E+00,-0.008
1.16800E+00,0.000
1.17200E+00,0.000
1.17600E+00,0.000
1.18000E+00,0.000
1.18400E+00,0.000
1.18800E+00,0.000
1.19200E+00,0.000
1.19600E+00,0.000
1.20000E+00,0.008
1.20400E+00,0.008
1.20800E+00,0.008
1.21200E+00,-0.008
1.21600E+00,0.000
1.22000E+00,0.000
1.22400E+00,0.000
1.22800E+00,0.000
1.23200E+00,0.008
1.23600E+00,0.008
1.24000E+00,-0.008
1.24400E+00,0.000
1.24800E+00,0.000
1.25200E+00,0.000
1.25600E+00,0.008
1.26000E+00,0.008
1.26400E+00,-0.008
1.26800E+00,0.000
1.27200E+00,0.000
1.27600E+00,0.000
1.28000E+00,0.000
1.28400E+00,0.000
1.28800E+00,-0.008
1.29200E+00,-0.008
1.29600E+00,-0.008
1.30000E+00,-0.008
1.30400E+00,0.000
1.30800E+00,-0.008
1.31200E+00,-0.008
1.31600E+00,0.000
1.32000E+00,-0.008
1.32400E+00,0.000
1.32800E+00,0.000
1.33200E+00,0.000
1.33600E+00,0.000
1.34000E+00,0.000
1.34400E+00,0.000
1.34800E+00,0.000
1.35200E+00,0.000
1.35600E+00,0.000
1.36000E+00,0.000
1.36400E+00,0.000
1.36800E+00,-0.008
1.37200E+00,-0.008
1.37600E+00,0.000
1.38000E+00,0.000
1.38400E+00,0.000
1.38800E+00,0.000
1.39200E+00,0.000
1.39600E+00,0.000
1.40000E+00,-0.008
1.40400E+00,0.000
1.40800E+00,0.000
1.41200E+00,0.000
1.41600E+00,0.008
1.42000E+00,0.008
1.42400E+00,-0.008
1.42800E+00,0.000
1.43200E+00,0.000
1.43600E+00,0.000
1.44000E+00,0.000
1.44400E+00,0.000
1.44800E+00,-0.008
1.45200E+00,0.000
1.45600E+00,0.000
1.46000E+00,0.008
1.46400E+00,0.000
1.46800E+00,-0.008
1.47200E+00,-0.008
1.47600E+00,0.000
1.48000E+00,-0.008
1.48400E+00,0.000
1.48800E+00,0.000
1.49200E+00,0.000
1.49600E+00,-0.008
1.50000E+00,-0.008
1.50400E+00,0.000
1.50800E+00,0.000
1.51200E+00,0.000
1.51600E+00,0.000
1.52000E+00,0.008
1.52400E+00,0.008
1.52800E+00,-0.008
1.53200E+00,0.000
1.53600E+00,0.000
1.54000E+00,0.000
1.54400E+00,-0.008
1.54800E+00,-0.008
1.55200E+00,0.000
1.55600E+00,-0.008
1.56000E+00,0.000
1.56400E+00,0.008
1.56800E+00,0.008
1.57200E+00,-0.008
1.57600E+00,-0.008
1.58000E+00,0.000
1.58400E+00,-0.008
1.58800E+00,0.000
1.59200E+00,0.000
1.59600E+00,0.000
1.60000E+00,0.008
1.60400E+00,0.008
1.60800E+00,0.000
1.61200E+00,0.000
1.61600E+00,0.000
1.62000E+00,0.000
1.62400E+00,0.000
1.62800E+00,0.000
1.63200E+00,-0.008
1.63600E+00,0.000
1.64000E+00,0.000
1.64400E+00,0.000
1.64800E+00,0.000
1.65200E+00,-0.016
1.65600E+00,-0.008
1.66000E+00,0.000
1.66400E+00,-0.008
1.66800E+00,0.000
1.67200E+00,0.000
1.67600E+00,0.000
1.68000E+00,0.000
1.68400E+00,0.000
1.68800E+00,0.008
1.69200E+00,0.008
1.69600E+00,-0.008
1.70000E+00,-0.008
1.70400E+00,0.000
1.70800E+00,0.008
1.71200E+00,-0.008
1.71600E+00,-0.008
1.72000E+00,0.000
1.72400E+00,-0.008
1.72800E+00,0.000
1.73200E+00,0.000
1.73600E+00,0.008
1.74000E+00,0.000
1.74400E+00,0.000
1.74800E+00,0.000
1.75200E+00,0.000
1.75600E+00,0.008
1.76000E+00,0.008
1.76400E+00,-0.008
1.76800E+00,-0.008
1.77200E+00,0.000
1.77600E+00,-0.008
1.78000E+00,0.000
1.78400E+00,-0.008
1.78800E+00,0.000
1.79200E+00,0.000
1.79600E+00,0.000
1.80000E+00,0.000
1.80400E+00,0.008
1.80800E+00,0.000
1.81200E+00,0.000
1.81600E+00,0.000
1.82000E+00,0.000
1.82400E+00,0.000
1.82800E+00,0.008
1.83200E+00,0.008
1.83600E+00,0.008
1.84000E+00,-0.008
1.84400E+00,0.000
1.84800E+00,0.000
1.85200E+00,0.000
1.85600E+00,0.000
1.86000E+00,0.000
1.86400E+00,0.000
1.86800E+00,0.000
1.87200E+00,0.000
1.87600E+00,0.000
1.88000E+00,0.000
1.88400E+00,0.008
1.88800E+00,0.008
1.89200E+00,-0.008
1.89600E+00,-0.008
1.90000E+00,0.000
1.90400E+00,-0.008
1.90800E+00,0.000
1.91200E+00,0.000
1.91600E+00,0.000
1.92000E+00,0.000
1.92400E+00,0.000
1.92800E+00,-0.008
1.93200E+00,-0.008
1.93600E+00,0.000
1.94000E+00,0.000
1.94400E+00,0.000
1.94800E+00,0.000
1.95200E+00,-0.008
1.95600E+00,0.000
1.96000E+00,0.016
1.96400E+00,-0.008
1.96800E+00,-0.008
1.97200E+00,0.000
1.97600E+00,0.008
1.98000E+00,0.008
1.98400E+00,-0.008
1.98800E+00,-0.008
1.99200E+00,0.000
1.99600E+00,-0.008
2.00000E+00,0.000
2.00400E+00,0.000
2.00800E+00,0.000
2.01200E+00,0.000
2.01600E+00,0.008
2.02000E+00,0.008
2.02400E+00,-0.008
2.02800E+00,0.000
2.03200E+00,0.000
2.03600E+00,0.000
2.04000E+00,0.000
2.04400E+00,0.000
2.04800E+00,-0.008
2.05200E+00,0.000
2.05600E+00,0.008
2.06000E+00,0.008
2.06400E+00,0.008
2.06800E+00,-0.008
2.07200E+00,-0.008
2.07600E+00,0.000
2.08000E+00,-0.008
2.08400E+00,0.000
2.08800E+00,0.000
2.09200E+00,0.000
2.09600E+00,0.000
2.10000E+00,0.000
2.10400E+00,0.008
2.10800E+00,0.000
2.11200E+00,0.000
2.11600E+00,-0.008
2.12000E+00,0.000
2.12400E+00,0.000
2.12800E+00,0.000
2.13200E+00,-0.008
2.13600E+00,0.000
2.14000E+00,0.000
2.14400E+00,0.024
2.14800E+00,0.056
2.15200E+00,0.048
2.15600E+00,0.056
2.16000E+00,0.048
2.16400E+00,0.040
2.16800E+00,0.040
2.17200E+00,0.048
2.17600E+00,0.040
2.18000E+00,0.032
2.18400E+00,0.024
2.18800E+00,0.024
2.19200E+00,0.016
2.19600E+00,0.008
2.20000E+00,0.016
2.20400E+00,0.016
2.20800E+00,0.024
2.21200E+00,0.032
2.21600E+00,0.008
2.22000E+00,0.008
2.22400E+00,0.008
2.22800E+00,0.000
2.23200E+00,0.024
2.23600E+00,0.024
2.24000E+00,0.008
2.24400E+00,0.016
2.24800E+00,0.008
2.25200E+00,0.008
2.25600E+00,0.008
2.26000E+00,0.000
2.26400E+00,0.016
2.26800E+00,0.000
2.27200E+00,0.000
2.27600E+00,0.008
2.28000E+00,0.008
2.28400E+00,0.016
2.28800E+00,0.024
2.29200E+00,0.008
2.29600E+00,0.008
2.30000E+00,0.008
2.30400E+00,0.008
2.30800E+00,0.008
2.31200E+00,0.008
2.31600E+00,0.008
2.32000E+00,0.000
2.32400E+00,0.008
2.32800E+00,0.008
2.33200E+00,0.008
2.33600E+00,0.008
2.34000E+00,0.016
2.34400E+00,0.000
2.34800E+00,0.008
2.35200E+00,0.008
2.35600E+00,0.008
2.36000E+00,0.008
2.36400E+00,0.008
2.36800E+00,0.008
2.37200E+00,0.016
2.37600E+00,0.016
2.38000E+00,0.016
2.38400E+00,0.016
2.38800E+00,0.000
2.39200E+00,0.008
2.39600E+00,0.008
2.40000E+00,0.008
2.40400E+00,0.008
2.40800E+00,0.016
2.41200E+00,0.016
2.41600E+00,0.000
2.42000E+00,0.000
2.42400E+00,0.008
2.42800E+00,0.000
2.43200E+00,0.000
2.43600E+00,0.016
2.44000E+00,0.000
2.44400E+00,0.008
2.44800E+00,0.008
2.45200E+00,0.008
2.45600E+00,0.008
2.46000E+00,0.008
2.46400E+00,0.008
2.46800E+00,0.008
2.47200E+00,0.008
2.47600E+00,0.008
2.48000E+00,0.008
2.48400E+00,0.008
2.48800E+00,0.008
2.49200E+00,0.008
2.49600E+00,0.016
2.50000E+00,0.016
2.50400E+00,0.008
2.50800E+00,0.008
2.51200E+00,0.008
2.51600E+00,0.008
2.52000E+00,0.008
2.52400E+00,0.024
2.52800E+00,0.008
2.53200E+00,0.008
2.53600E+00,0.008
2.54000E+00,0.008
2.54400E+00,0.008
2.54800E+00,0.008
2.55200E+00,0.008
2.55600E+00,0.008
2.56000E+00,0.000
2.56400E+00,0.000
2.56800E+00,0.008
2.57200E+00,0.016
2.57600E+00,0.016
2.58000E+00,0.000
2.58400E+00,0.008
2.58800E+00,0.008
2.59200E+00,0.008
2.59600E+00,0.016
2.60000E+00,0.000
2.60400E+00,0.000
2.60800E+00,0.008
2.61200E+00,0.000
2.61600E+00,0.000
2.62000E+00,0.008
2.62400E+00,0.008
2.62800E+00,0.008
2.63200E+00,0.008
2.63600E+00,0.016
2.64000E+00,0.016
2.64400E+00,0.008
2.64800E+00,0.016
2.65200E+00,0.000
2.65600E+00,0.016
2.66000E+00,0.008
2.66400E+00,0.008
2.66800E+00,0.008
2.67200E+00,0.000
2.67600E+00,0.008
2.68000E+00,0.008
2.68400E+00,0.008
2.68800E+00,0.008
2.69200E+00,0.008
2.69600E+00,0.008
2.70000E+00,0.016
2.70400E+00,0.000
2.70800E+00,0.016
2.71200E+00,0.008
2.71600E+00,0.016
2.72000E+00,0.008
2.72400E+00,0.016
2.72800E+00,0.024
2.73200E+00,0.024
2.73600E+00,0.000
2.74000E+00,0.008
2.74400E+00,0.016
2.74800E+00,0.016
2.75200E+00,0.008
2.75600E+00,0.016
2.76000E+00,0.016
2.76400E+00,0.016
2.76800E+00,0.024
2.77200E+00,0.016
2.77600E+00,0.016
2.78000E+00,0.016
2.78400E+00,0.016
2.78800E+00,0.024
2.79200E+00,0.008
2.79600E+00,0.024
2.80000E+00,0.008
2.80400E+00,0.016
2.80800E+00,0.024
2.81200E+00,0.016
2.81600E+00,0.016
2.82000E+00,0.024
2.82400E+00,0.016
2.82800E+00,0.016
2.83200E+00,0.016
2.83600E+00,0.024
2.84000E+00,0.016
2.84400E+00,0.016
2.84800E+00,0.016
2.85200E+00,0.024
2.85600E+00,0.016
2.86000E+00,0.016
2.86400E+00,0.024
2.86800E+00,0.024
2.87200E+00,0.016
2.87600E+00,0.016
2.88000E+00,0.016
2.88400E+00,0.024
2.88800E+00,0.016
2.89200E+00,0.008
2.89600E+00,0.016
2.90000E+00,0.016
2.90400E+00,0.008
2.90800E+00,0.016
2.91200E+00,0.024
2.91600E+00,0.024
2.92000E+00,0.016
2.92400E+00,0.008
2.92800E+00,0.016
2.93200E+00,0.024
2.93600E+00,0.008
2.94000E+00,0.016
2.94400E+00,0.024
2.94800E+00,0.016
2.95200E+00,0.008
2.95600E+00,0.016
2.96000E+00,0.008
2.96400E+00,0.032
2.96800E+00,0.008
2.97200E+00,0.016
2.97600E+00,0.024
2.98000E+00,0.032
2.98400E+00,0.032
2.98800E+00,0.008
2.99200E+00,0.024
2.99600E+00,0.024
3.00000E+00,0.024
3.00400E+00,0.016
3.00800E+00,0.024
3.01200E+00,0.024
3.01600E+00,0.024
3.02000E+00,0.032
3.02400E+00,0.024
3.02800E+00,0.008
3.03200E+00,0.024
3.03600E+00,0.032
3.04000E+00,0.024
3.04400E+00,0.024
3.04800E+00,0.024
3.05200E+00,0.032
3.05600E+00,0.032
3.06000E+00,0.024
3.06400E+00,0.032
3.06800E+00,0.024
3.07200E+00,0.040
3.07600E+00,0.024
3.08000E+00,0.024
3.08400E+00,0.016
3.08800E+00,0.032
3.09200E+00,0.032
3.09600E+00,0.024
3.10000E+00,0.032
3.10400E+00,0.024
3.10800E+00,0.032
3.11200E+00,0.040
3.11600E+00,0.024
3.12000E+00,0.032
3.12400E+00,0.024
3.12800E+00,0.024
3.13200E+00,0.040
3.13600E+00,0.040
3.14000E+00,0.032
3.14400E+00,0.040
3.14800E+00,0.032
3.15200E+00,0.032
3.15600E+00,0.040
3.16000E+00,0.032
3.16400E+00,0.032
3.16800E+00,0.040
3.17200E+00,0.032
3.17600E+00,0.032
3.18000E+00,0.024
3.18400E+00,0.032
3.18800E+00,0.032
3.19200E+00,0.040
3.19600E+00,0.040
3.20000E+00,0.032
3.20400E+00,0.040
3.20800E+00,0.032
3.21200E+00,0.040
3.21600E+00,0.032
3.22000E+00,0.032
3.22400E+00,0.048
3.22800E+00,0.032
3.23200E+00,0.048
3.23600E+00,0.048
3.24000E+00,0.040
3.24400E+00,0.040
3.24800E+00,0.040
3.25200E+00,0.040
3.25600E+00,0.040
3.26000E+00,0.048
3.26400E+00,0.032
3.26800E+00,0.040
3.27200E+00,0.048
3.27600E+00,0.040
3.28000E+00,0.048
3.28400E+00,0.040
3.28800E+00,0.048
3.29200E+00,0.040
3.29600E+00,0.048
3.30000E+00,0.048
3.30400E+00,0.040
3.30800E+00,0.040
3.31200E+00,0.048
3.31600E+00,0.048
3.32000E+00,0.048
3.32400E+00,0.040
3.32800E+00,0.040
3.33200E+00,0.040
3.33600E+00,0.048
3.34000E+00,0.048
3.34400E+00,0.040
3.34800E+00,0.040
3.35200E+00,0.040
3.35600E+00,0.048
3.36000E+00,0.056
3.36400E+00,0.048
3.36800E+00,0.048
3.37200E+00,0.048
3.37600E+00,0.056
3.38000E+00,0.056
3.38400E+00,0.040
3.38800E+00,0.040
3.39200E+00,0.056
3.39600E+00,0.056
3.40000E+00,0.048
3.40400E+00,0.056
3.40800E+00,0.048
3.41200E+00,0.048
3.41600E+00,0.048
3.42000E+00,0.056
3.42400E+00,0.048
3.42800E+00,0.048
3.43200E+00,0.048
3.43600E+00,0.048
3.44000E+00,0.048
3.44400E+00,0.048
3.44800E+00,0.048
3.45200E+00,0.048
3.45600E+00,0.056
3.46000E+00,0.056
3.46400E+00,0.056
3.46800E+00,0.048
3.47200E+00,0.048
3.47600E+00,0.056
3.48000E+00,0.064
3.48400E+00,0.064
3.48800E+00,0.064
3.49200E+00,0.064
3.49600E+00,0.056
3.50000E+00,0.048
3.50400E+00,0.056
3.50800E+00,0.056
3.51200E+00,0.056
3.51600E+00,0.064
3.52000E+00,0.064
3.52400E+00,0.056
3.52800E+00,0.056
3.53200E+00,0.064
3.53600E+00,0.072
3.54000E+00,0.056
3.54400E+00,0.064
3.54800E+00,0.072
3.55200E+00,0.064
3.55600E+00,0.064
3.56000E+00,0.048
3.56400E+00,0.064
3.56800E+00,0.064
3.57200E+00,0.064
3.57600E+00,0.064
3.58000E+00,0.064
3.58400E+00,0.072
3.58800E+00,0.064
3.59200E+00,0.072
3.59600E+00,0.064
3.60000E+00,0.064
3.60400E+00,0.064
3.60800E+00,0.064
3.61200E+00,0.064
3.61600E+00,0.064
3.62000E+00,0.072
3.62400E+00,0.064
3.62800E+00,0.064
3.63200E+00,0.064
3.63600E+00,0.064
3.64000E+00,0.072
3.64400E+00,0.080
3.64800E+00,0.064
3.65200E+00,0.080
3.65600E+00,0.072
3.66000E+00,0.064
3.66400E+00,0.072
3.66800E+00,0.072
3.67200E+00,0.112
3.67600E+00,0.064
3.68000E+00,0.072
3.68400E+00,0.080
3.68800E+00,0.072
3.69200E+00,0.080
3.69600E+00,0.080
3.70000E+00,0.072
3.70400E+00,0.072
3.70800E+00,0.080
3.71200E+00,0.080
3.71600E+00,0.080
3.72000E+00,0.080
3.72400E+00,0.072
3.72800E+00,0.080
3.73200E+00,0.080
3.73600E+00,0.088
3.74000E+00,0.080
3.74400E+00,0.088
3.74800E+00,0.080
3.75200E+00,0.080
3.75600E+00,0.080
3.76000E+00,0.080
3.76400E+00,0.088
3.76800E+00,0.080
3.77200E+00,0.088
3.77600E+00,0.088
3.78000E+00,0.096
3.78400E+00,0.080
3.78800E+00,0.080
3.79200E+00,0.080
3.79600E+00,0.080
3.80000E+00,0.088
3.80400E+00,0.072
3.80800E+00,0.080
3.81200E+00,0.080
3.81600E+00,0.088
3.82000E+00,0.088
3.82400E+00,0.088
3.82800E+00,0.080
3.83200E+00,0.080
3.83600E+00,0.088
3.84000E+00,0.088
3.84400E+00,0.088
3.84800E+00,0.088
3.85200E+00,0.088
3.85600E+00,0.096
3.86000E+00,0.096
3.86400E+00,0.088
3.86800E+00,0.088
3.87200E+00,0.096
3.87600E+00,0.088
3.88000E+00,0.096
3.88400E+00,0.088
3.88800E+00,0.096
3.89200E+00,0.104
3.89600E+00,0.088
3.90000E+00,0.088
3.90400E+00,0.096
3.90800E+00,0.096
3.91200E+00,0.096
3.91600E+00,0.088
3.92000E+00,0.096
3.92400E+00,0.096
3.92800E+00,0.104
3.93200E+00,0.104
3.93600E+00,0.096
3.94000E+00,0.104
3.94400E+00,0.096
3.94800E+00,0.096
3.95200E+00,0.104
3.95600E+00,0.104
3.96000E+00,0.112
3.96400E+00,0.104
3.96800E+00,0.096
3.97200E+00,0.088
3.97600E+00,0.104
3.98000E+00,0.112
3.98400E+00,0.096
3.98800E+00,0.096
3.99200E+00,0.104
3.99600E+00,0.112
4.00000E+00,0.096
4.00400E+00,0.096
4.00800E+00,0.104
4.01200E+00,0.096
4.01600E+00,0.104
4.02000E+00,0.104
4.02400E+00,0.096
4.02800E+00,0.096
4.03200E+00,0.112
4.03600E+00,0.112
4.04000E+00,0.112
4.04400E+00,0.112
4.04800E+00,0.112
4.05200E+00,0.104
4.05600E+00,0.112
4.06000E+00,0.104
4.06400E+00,0.112
4.06800E+00,0.104
4.07200E+00,0.112
4.07600E+00,0.120
4.08000E+00,0.128
4.08400E+00,0.120
4.08800E+00,0.120
4.09200E+00,0.112
4.09600E+00,0.120
4.10000E+00,0.120
4.10400E+00,0.112
4.10800E+00,0.112
4.11200E+00,0.112
4.11600E+00,0.120
4.12000E+00,0.112
4.12400E+00,0.112
4.12800E+00,0.120
4.13200E+00,0.112
4.13600E+00,0.112
4.14000E+00,0.112
4.14400E+00,0.120
4.14800E+00,0.120
4.15200E+00,0.128
4.15600E+00,0.120
4.16000E+00,0.120
4.16400E+00,0.128
4.16800E+00,0.120
4.17200E+00,0.120
4.17600E+00,0.120
4.18000E+00,0.120
4.18400E+00,0.128
4.18800E+00,0.120
4.19200E+00,0.128
4.19600E+00,0.120
4.20000E+00,0.120
4.20400E+00,0.128
4.20800E+00,0.128
4.21200E+00,0.136
4.21600E+00,0.128
4.22000E+00,0.120
4.22400E+00,0.128
4.22800E+00,0.128
4.23200E+00,0.136
4.23600E+00,0.136
4.24000E+00,0.136
4.24400E+00,0.136
4.24800E+00,0.120
4.25200E+00,0.152
4.25600E+00,0.128
4.26000E+00,0.136
4.26400E+00,0.136
4.26800E+00,0.136
4.27200E+00,0.144
4.27600E+00,0.136
4.28000E+00,0.136
4.28400E+00,0.144
4.28800E+00,0.136
4.29200E+00,0.144
4.29600E+00,0.136
4.30000E+00,0.144
4.30400E+00,0.144
4.30800E+00,0.136
4.31200E+00,0.136
4.31600E+00,0.144
4.32000E+00,0.136
4.32400E+00,0.136
4.32800E+00,0.128
4.33200E+00,0.136
4.33600E+00,0.144
4.34000E+00,0.136
4.34400E+00,0.136
4.34800E+00,0.136
4.35200E+00,0.136
4.35600E+00,0.136
4.36000E+00,0.144
4.36400E+00,0.136
4.36800E+00,0.144
4.37200E+00,0.136
4.37600E+00,0.144
4.38000E+00,0.144
4.38400E+00,0.144
4.38800E+00,0.136
4.39200E+00,0.136
4.39600E+00,0.144
4.40000E+00,0.144
